
http://159.203.41.95/phpmyadmin
user: root
pass: IPD20Rocks!
------------------------------------------
test1maha

X7aDeoeXulYHDTTG
-------------------------------------------
Name:pharmacymanagement
Pass:FgAbjI9xTBGaFYJs
